…
Add covariates to the data

``` r
idata %>% mrgsolve:::mutate_random(cov2,envir=e)
```

    . # A tibble: 100 × 6
    .       ID GROUP      AGE     FLAG       WT   SEX
    .    <int> <dbl>    <dbl>    <dbl>    <dbl> <dbl>
    . 1      1     1 44.84579 24.58397 75.91064     1
    . 2      2     0 72.24736 34.09395 85.44513     1
    . 3      3     1 57.82068 24.58397 64.81275     1
    . 4      4     0 59.10636 34.09395 65.99530     1
    . 5      5     1 65.03113 24.58397 62.37623     0
    . 6      6     0 37.65363 34.09395 58.28292     1
    . 7      7     1 53.40942 24.58397 58.84919     0
    . 8      8     0 55.66629 34.09395 83.10690     0
    . 9      9     1 44.10355 24.58397 79.84439     1
    . 10    10     0 57.92789 34.09395 86.38993     0
    . # ... with 90 more rows
…
