…
Add covariates to the data

``` r
idata %>% mrgsolve:::mutate_random(cov2,envir=e)
```

    . # A tibble: 100 × 6
    .       ID      AGE STUDY     FLAG       WT   SEX
    .    <int>    <dbl> <dbl>    <dbl>    <dbl> <dbl>
    . 1      1 42.57292     0 25.82872 96.09889     0
    . 2      2 36.01879     0 25.82872 75.18640     1
    . 3      3 66.03805     1 29.04194 95.47189     1
    . 4      4 50.59217     1 29.04194 81.14880     0
    . 5      5 46.65063     1 29.04194 74.43486     0
    . 6      6 64.31989     0 25.82872 51.80531     1
    . 7      7 50.22581     0 25.82872 84.33909     0
    . 8      8 36.79871     0 25.82872 82.68266     0
    . 9      9 58.29132     0 25.82872 50.10891     1
    . 10    10 26.72953     1 29.04194 93.35832     1
    . # ... with 90 more rows
…
